%YAML 1.1
%TAG !u! tag:unity3d.com,2011:
--- !u!114 &11400000
MonoBehaviour:
  m_ObjectHideFlags: 0
  m_CorrespondingSourceObject: {fileID: 0}
  m_PrefabInstance: {fileID: 0}
  m_PrefabAsset: {fileID: 0}
  m_GameObject: {fileID: 0}
  m_Enabled: 1
  m_EditorHideFlags: 0
  m_Script: {fileID: 11500000, guid: ba8c735ac5aad72468f4027813754977, type: 3}
  m_Name: BigPuffVFX
  m_EditorClassIdentifier: 
  prefab: {fileID: 3682589713613966122, guid: 33a8a37e2909e3c44b289e783ff1bfd0, type: 3}
  duration: 3
  poolSize: 10
  setParent: 0
