%YAML 1.1
%TAG !u! tag:unity3d.com,2011:
--- !u!114 &11400000
MonoBehaviour:
  m_ObjectHideFlags: 0
  m_CorrespondingSourceObject: {fileID: 0}
  m_PrefabInstance: {fileID: 0}
  m_PrefabAsset: {fileID: 0}
  m_GameObject: {fileID: 0}
  m_Enabled: 1
  m_EditorHideFlags: 0
  m_Script: {fileID: 11500000, guid: fede8ae98bd643144989f29bc1d24b55, type: 3}
  m_Name: sfx_Morre_4
  m_EditorClassIdentifier: 
  clip: {fileID: 8300000, guid: 7e620647d22a42b4e832474db3af2730, type: 3}
  mixerGroup: {fileID: -8434791605109091306, guid: ddaab78c2a455144c8ee40b62b1b082c, type: 2}
  loop: 0
  volume: 1
  pitch: 1
  stereoPan: 0
  spatialBlend: 1
  minDistance: 1
  maxDistance: 100
  setParent: 0
